Get started with pins
…
type = "json" uses jsonlite::write_json()
to create a JSON file. Pretty much every programming language can read
json files, but they only work well for nested lists.

type = "qs" uses qs::qsave() to create a
binary R data file, like writeRDS(). This format achieves
faster read/write speeds than RDS, and compresses data more efficiently,
making it a good choice for larger objects. Read more on the qs package.

After you’ve pinned an object, you can read it back with
pin_read():

board %>% pin_read("mtcars")
#> # A tibble: 32 × 11
#>      mpg   cyl  disp    hp  drat    wt  qsec    vs    am  gear  carb
#>    <dbl> <dbl> <dbl> <dbl> <dbl> <dbl> <dbl> <dbl> <dbl> <dbl> <dbl>
#>  1  21       6  160    110  3.9   2.62  16.5     0     1     4     4
#>  2  21       6  160    110  3.9   2.88  17.0     0     1     4     4
#>  3  22.8     4  108     93  3.85  2.32  18.6     1     1     4     1
#>  4  21.4     6  258    110  3.08  3.22  19.4     1     0     3     1
#>  5  18.7     8  360    175  3.15  3.44  17.0     0     0     3     2
#>  6  18.1     6  225    105  2.76  3.46  20.2     1     0     3     1
#>  7  14.3     8  360    245  3.21  3.57  15.8     0     0     3     4
#>  8  24.4     4  147.    62  3.69  3.19  20       1     0     4     2
#>  9  22.8     4  141.    95  3.92  3.15  22.9     1     0     4     2
#> 10  19.2     6  168.   123  3.92  3.44  18.3     1     0     4     4
#> # ℹ 22 more rows
…
my_data <- board_url(c(
  "penguins" = "https://raw.githubusercontent.com/allisonhorst/palmerpenguins/master/inst/extdata/penguins_raw.csv"
))

You can read this data by combining pin_download() with
read.csv()1:

my_data %>%
  pin_download("penguins") %>% 
  read.csv(check.names = FALSE) %>% 
  tibble::as_tibble()
#> # A tibble: 344 × 17
#>    studyName `Sample Number` Species         Region Island Stage `Individual ID`
#>    <chr>               <int> <chr>           <chr>  <chr>  <chr> <chr>          
#>  1 PAL0708                 1 Adelie Penguin… Anvers Torge… Adul… N1A1           
#>  2 PAL0708                 2 Adelie Penguin… Anvers Torge… Adul… N1A2           
#>  3 PAL0708                 3 Adelie Penguin… Anvers Torge… Adul… N2A1           
#>  4 PAL0708                 4 Adelie Penguin… Anvers Torge… Adul… N2A2           
#>  5 PAL0708                 5 Adelie Penguin… Anvers Torge… Adul… N3A1           
#>  6 PAL0708                 6 Adelie Penguin… Anvers Torge… Adul… N3A2           
#>  7 PAL0708                 7 Adelie Penguin… Anvers Torge… Adul… N4A1           
#>  8 PAL0708                 8 Adelie Penguin… Anvers Torge… Adul… N4A2           
#>  9 PAL0708                 9 Adelie Penguin… Anvers Torge… Adul… N5A1           
#> 10 PAL0708                10 Adelie Penguin… Anvers Torge… Adul… N5A2           
#> # ℹ 334 more rows
#> # ℹ 10 more variables: `Clutch Completion` <chr>, `Date Egg` <chr>,
#> #   `Culmen Length (mm)` <dbl>, `Culmen Depth (mm)` <dbl>,
#> #   `Flipper Length (mm)` <int>, `Body Mass (g)` <int>, Sex <chr>,
#> #   `Delta 15 N (o/oo)` <dbl>, `Delta 13 C (o/oo)` <dbl>, Comments <chr>
…
